{
  "meta": {
    "kind": "charm"
  },
  "name": "Reference-Solidifying Discipline",
  "cost": {
    "willpower": 1
  },
  "minimums": {
    "essence": 1,
    "ability": {
      "Homebrew": 1
    }
  },
  "type": "Simple",
  "keywords": [
    "Written-only"
  ],
  "duration": "Instant",
  "prerequisites": [
    {
      "charm": "Rust-Building Focus"
    },
    {
      "charm": "Third-Edition-Fluency Approach"
    }
  ],
  "mechanics": {
    "free-text": "This Charm allows the Designer to define other Charms using a structured format. The Charm's\nmechanical effects will be clearly and consistently specified in alignment with the rules of\nExalted Third Edition. To activate this Charm, the Designer supplies her Charmset in one or\nmore JSON files, and specifies the desired output format:\n\n```bash\n$: reference-solidifying-discipline --sources charms.json --format markdown --output charms.md\n```"
  }
}